Project 1: Wrangling, Exploration, Visualization
…
## # A tibble: 1 x 1
##   `n_distinct(country)`
##                   <int>
## 1                   193

data2 %>% summarize(n_distinct(country))

## # A tibble: 1 x 1
##   `n_distinct(country)`
##                   <int>
## 1                    70

data1 %>% anti_join(data2, by = "country")

## # A tibble: 126 x 5
##    country      total_litres_of_pur beer_servings spirit_servings wine_servings
##    <chr>                       <dbl>         <int>           <int>         <int>
##  1 Afghanistan                   0               0               0             0
##  2 Albania                       4.9            89             132            54
##  3 Andorra                      12.4           245             138           312
##  4 Angola                        5.9           217              57            45
##  5 Antigua & B                  4.9           102             128            45
##  6 Armenia                       3.8            21             179            11
##  7 Austria                       9.7           279              75           191
##  8 Azerbaijan                    1.3            21              46             5
##  9 Bahamas                       6.3           122             176            51
## 10 Barbados                      6.3           143             173            36
## #  with 116 more rows
…
## # A tibble: 3 x 2
##   country         percent
##   <chr>             <dbl>
## 1 Great Britain       0.4
## 2 The Netherlands     0.2
## 3 United States       0.2

data2 <- data2 %>% mutate(country = str_replace(country, "United States", 
    "USA")) %>% mutate(country = str_replace(country, "The Netherlands", 
    "Netherlands")) %>% mutate(country = str_replace(country, 
    "Great Britain", "United Kingdom"))
data1 %>% inner_join(data2, by = "country")

## # A tibble: 70 x 6
##    country  total_litres_of beer_servings spirit_servings wine_servings percent
##    <chr>               <dbl>         <int>           <int>         <int>   <dbl>
##  1 Algeria               0.7            25               0            14    22.6
##  2 Argenti              8.3           193              25           221     0.5
##  3 Austral             10.4           261              72           212     0.5
##  4 Bahrain               2              42              63             7    44.4
##  5 Banglad              0               0               0             0    10.5
##  6 Belgium              10.5           295              84           212     1.1
##  7 Bolivia               3.8           167              41             8     1.7
##  8 Brazil                7.2           245             145            16     4.3
##  9 Burkina              4.3            25               7             7    65.8
## 10 Canada                8.2           240             122           100     1.5
## #  with 60 more rows
…
Wrangling

library(stringr)
joined_data <- joined_data %>% mutate(percentclass = case_when(percent > 
    5 ~ "Greater than 5 percent", TRUE ~ "Less than 5 percent"))
joined_data %>% mutate(servings.total = wine_servings + beer_servings + 
    spirit_servings)

## # A tibble: 70 x 8
##    country total_litres_of beer_servings spirit_servings wine_servings percent
##    <chr>              <dbl>         <int>           <int>         <int>   <dbl>
##  1 Algeria              0.7            25               0            14    22.6
##  2 Argent              8.3           193              25           221     0.5
##  3 Austra             10.4           261              72           212     0.5
##  4 Bahrain              2              42              63             7    44.4
##  5 Bangla              0               0               0             0    10.5
##  6 Belgium             10.5           295              84           212     1.1
##  7 Bolivia              3.8           167              41             8     1.7
##  8 Brazil               7.2           245             145            16     4.3
##  9 Burkin              4.3            25               7             7    65.8
## 10 Canada               8.2           240             122           100     1.5
## #  with 60 more rows, and 2 more variables: percentclass <chr>,
## #   servings.total <int>

str_detect(joined_data$percentclass, paste("G.", collapse = "|"))

##  [1]  TRUE FALSE FALSE  TRUE  TRUE FALSE FALSE FALSE  TRUE FALSE FALSE FALSE
## [13] FALSE FALSE FALSE FALSE FALSE FALSE  TRUE FALSE FALSE  TRUE FALSE FALSE
## [25]  TRUE  TRUE  TRUE  TRUE FALSE  TRUE FALSE  TRUE  TRUE  TRUE  TRUE  TRUE
## [37]  TRUE  TRUE FALSE  TRUE FALSE  TRUE FALSE  TRUE  TRUE FALSE FALSE FALSE
## [49] FALSE  TRUE  TRUE FALSE FALSE FALSE FALSE  TRUE  TRUE FALSE  TRUE  TRUE
## [61]  TRUE  TRUE  TRUE FALSE  TRUE FALSE FALSE  TRUE FALSE  TRUE

joined_data %>% filter(total_litres_of_pure_alcohol >= 5) %>% 
    dplyr::select(-percent) %>% arrange(desc(beer_servings))

## # A tibble: 30 x 6
##    country total_litres_of beer_servings spirit_servings wine_servings
##    <chr>              <dbl>         <int>           <int>         <int>
##  1 Czech              11.8           361             170           134
##  2 Venezu              7.7           333             100             3
##  3 Ireland             11.4           313             118           165
##  4 Belgium             10.5           295              84           212
##  5 Panama               7.2           285             104            18
##  6 Spain               10             284             157           112
##  7 Sloven             10.6           270              51           276
##  8 Austra             10.4           261              72           212
##  9 Nether              9.4           251              88           190
## 10 USA                  8.7           249             158            84
## #  with 20 more rows, and 1 more variable: percentclass <chr>
…
